dump.vcd
$date
	Wed Jan 08 13:06:53 2025
$end
$version
	QuestaSim Version 10.7c
$end
$timescale
	1ns
$end

$scope module apb_testbench $end

$scope module apb_if $end
$var reg 1 ! PCLK $end
$var reg 1 " PRESET_N $end
$var reg 8 # PADDR [7:0] $end
$var reg 8 $ PWDATA [7:0] $end
$var reg 8 % PRDATA [7:0] $end
$var reg 1 & PSEL $end
$var reg 1 ' PENABLE $end
$var reg 1 ( PWRITE $end
$var reg 1 ) PREADY $end
$var reg 1 * PSLVERR $end
$upscope $end

$scope module DUT $end
$var parameter 32 + MIN_RAND_WAIT_CYC $end
$var parameter 32 , MAX_RAND_WAIT_CYC $end
$upscope $end
$upscope $end

$scope begin uvm_pkg $end
$var parameter 32 - UVM_HDL_MAX_WIDTH $end
$var parameter 32 . UVM_STREAMBITS $end
$var parameter 32 / UVM_RADIX $end
$var parameter 32 0 UVM_MACRO_NUMFLAGS $end
$var parameter 32 1 UVM_DEFAULT $end
$var parameter 32 2 UVM_ALL_ON $end
$var parameter 32 3 UVM_FLAGS_ON $end
$var parameter 32 4 UVM_FLAGS_OFF $end
$var parameter 32 5 UVM_COPY $end
$var parameter 32 6 UVM_NOCOPY $end
$var parameter 32 7 UVM_COMPARE $end
$var parameter 32 8 UVM_NOCOMPARE $end
$var parameter 32 9 UVM_PRINT $end
$var parameter 32 : UVM_NOPRINT $end
$var parameter 32 ; UVM_RECORD $end
$var parameter 32 < UVM_NORECORD $end
$var parameter 32 = UVM_PACK $end
$var parameter 32 > UVM_NOPACK $end
$var parameter 32 ? UVM_PHYSICAL $end
$var parameter 32 @ UVM_ABSTRACT $end
$var parameter 32 A UVM_READONLY $end
$var parameter 32 B UVM_NODEFPRINT $end
$var parameter 32 C UVM_MACRO_EXTRAS $end
$var parameter 32 D UVM_FLAGS $end
$var parameter 32 E UVM_UNPACK $end
$var parameter 32 F UVM_CHECK_FIELDS $end
$var parameter 32 G UVM_END_DATA_EXTRA $end
$var parameter 32 H UVM_START_FUNCS $end
$var parameter 32 I UVM_SET $end
$var parameter 32 J UVM_SETINT $end
$var parameter 32 K UVM_SETOBJ $end
$var parameter 32 L UVM_SETSTR $end
$var parameter 32 M UVM_END_FUNCS $end
$var parameter 32 N UVM_STR_CRC_POLYNOMIAL $end
$var parameter 32 O UVM_STDOUT $end
$var parameter 32 P UVM_LINE_WIDTH $end
$var parameter 32 Q UVM_NUM_LINES $end
$var parameter 32 R UVM_SMALL_STRING $end
$var parameter 32 S UVM_LARGE_STRING $end
$var reg 1 T uvm_start_uvm_declarations $end
$var integer 32 U uvm_global_random_seed $end
$var integer 32 V UVM_UNBOUNDED_CONNECTIONS $end

$scope function uvm_hdl_check_path $end
$var integer 32 W uvm_hdl_check_path $end
$upscope $end

$scope function uvm_hdl_deposit $end
$var integer 32 X uvm_hdl_deposit $end
$var reg 1024 Y value [1023:0] $end
$upscope $end

$scope function uvm_hdl_force $end
$var integer 32 Z uvm_hdl_force $end
$var reg 1024 [ value [1023:0] $end
$upscope $end

$scope task uvm_hdl_force_time $end
$var reg 1024 \ value [1023:0] $end
$var time 64 ] force_time $end
$upscope $end

$scope function uvm_hdl_release_and_read $end
$var integer 32 ^ uvm_hdl_release_and_read $end
$var reg 1024 _ value [1023:0] $end
$upscope $end

$scope function uvm_hdl_release $end
$var integer 32 ` uvm_hdl_release $end
$upscope $end

$scope function uvm_hdl_read $end
$var integer 32 a uvm_hdl_read $end
$var reg 1024 b value [1023:0] $end
$upscope $end

$scope function uvm_dpi_regexec $end
$var integer 32 c uvm_dpi_regexec $end
$upscope $end

$scope function uvm_re_match $end
$var integer 32 d uvm_re_match $end
$upscope $end

$scope function uvm_radix_to_string $end
$var integer 32 e radix $end
$upscope $end

$scope function uvm_instance_scope $end
$var reg 8 f c [7:0] $end
$var integer 32 g pos $end
$upscope $end

$scope function uvm_oneway_hash $end
$var integer 32 h uvm_oneway_hash $end
$var integer 32 i seed $end
$var reg 1 j msb $end
$var reg 8 k current_byte [7:0] $end
$var reg 32 l crc1 [31:0] $end
$upscope $end

$scope function uvm_create_random_seed $end
$var integer 32 m uvm_create_random_seed $end
$upscope $end

$scope function uvm_leaf_scope $end
$var reg 8 n scope_separator [7:0] $end
$var reg 8 o bracket_match [7:0] $end
$var integer 32 p pos $end
$var integer 32 q bmatches $end
$upscope $end

$scope function uvm_vector_to_string $end
$var reg 4096 r value [4095:0] $end
$var integer 32 s size $end
$var integer 32 t radix $end
$upscope $end

$scope function uvm_get_array_index_int $end
$var integer 32 u uvm_get_array_index_int $end
$var reg 1 v is_wildcard $end
$var integer 32 w i $end
$upscope $end

$scope function uvm_get_array_index_string $end
$var reg 1 x is_wildcard $end
$var integer 32 y i $end
$upscope $end

$scope function uvm_is_array $end
$var reg 1 z uvm_is_array $end
$upscope $end

$scope function set_global_timeout $end
$var time 64 { timeout $end
$var reg 1 | overridable $end
$upscope $end

$scope function set_global_stop_timeout $end
$var time 64 } timeout $end
$upscope $end

$scope function uvm_report_enabled $end
$var reg 1 ~ uvm_report_enabled $end
$var integer 32 !! verbosity $end
$var reg 2 "! severity [1:0] $end
$upscope $end

$scope function uvm_report $end
$var reg 2 #! severity [1:0] $end
$var integer 32 $! verbosity $end
$var integer 32 %! line $end
$upscope $end

$scope function uvm_report_info $end
$var integer 32 &! verbosity $end
$var integer 32 '! line $end
$upscope $end

$scope function uvm_report_warning $end
$var integer 32 (! verbosity $end
$var integer 32 )! line $end
$upscope $end

$scope function uvm_report_error $end
$var integer 32 *! verbosity $end
$var integer 32 +! line $end
$upscope $end

$scope function uvm_report_fatal $end
$var integer 32 ,! verbosity $end
$var integer 32 -! line $end
$upscope $end

$scope function uvm_string_to_severity $end
$var reg 1 .! uvm_string_to_severity $end
$var reg 2 /! sev [1:0] $end
$upscope $end

$scope function set_config_int $end
$var reg 4096 0! value [4095:0] $end
$upscope $end

$scope function set_config_object $end
$var reg 1 1! clone $end
$upscope $end

$scope function uvm_is_match $end
$var reg 1 2! uvm_is_match $end
$upscope $end

$scope function uvm_string_to_bits $end
$var reg 115200 3! uvm_string_to_bits [115199:0] $end
$upscope $end

$scope function uvm_bits_to_string $end
$var reg 115200 4! str [115199:0] $end
$upscope $end

$scope task uvm_wait_for_nba_region $end
$var integer 32 5! nba $end
$var integer 32 6! next_nba $end
$upscope $end
$upscope $end
$enddefinitions $end
#0
$dumpvars
0x
0z
0.!
b0 /!
bx 3!
bx 4!
bx Y
bx [
bx \
bx _
bx b
1T
0j
b1101101 k
b1010010001001011111110001100110 l
b1 r
0v
0|
0~
b0 "!
b0 #!
bx 0!
01!
02!
0!
1"
bx #
bx $
b0 %
0&
0'
x(
0)
0*
b10000000000 -
b1000000000000 .
b1111000000000000000000000000 /
b10001 0
b10101010101 1
b101010101 2
b101010101 3
b0 4
b1 5
b10 6
b100 7
b1000 8
b10000 9
b100000 :
b1000000 ;
b10000000 <
b100000000 =
b1000000000 >
b10000000000000 ?
b100000000000000 @
b1000000000000000 A
b10000000000000000 B
b100000000000000000 C
b100000000000000001 D
b100000000000000010 E
b100000000000000011 F
b100000000000000100 G
b100000000000000101 H
b100000000000000110 I
b100000000000000110 J
b100000000000000111 K
b100000000000001000 L
b100000000000001000 M
b100110000010001110110110110 N
b1 O
b1111000 P
b1111000 Q
b1110111111 R
b11100000111111111 S
b1 +
b10 ,
b0 e
b101110 n
b0 o
b101001 p
b11111111111111111111111111111111 q
b0 y
b0 W
b0 X
b0 Z
b0 ^
b0 `
b0 a
b1 c
b0 d
b1101001011000001111100000011110 U
b101110 f
b111 g
b10011001001101001011001011 h
b1101001011000001111100000011110 i
b10011110100111101000110010001001 m
b100000 s
b10000000000000000000000000 t
b0 u
b0 w
b111110100 !!
b0 $!
b0 %!
b11001000 &!
b11011000 '!
b0 (!
b0 )!
b0 *!
b0 +!
b0 ,!
b0 -!
b100011 5!
b100011 6!
b11111111111111111111111111111111 V
bx ]
bx {
bx }
$end
#10
1!
#20
0!
#30
1!
#40
0!
0"
b100100 6!
b100100 5!
#50
1!
1&
b0 #
1(
b10011 $
#60
0!
#70
1!
1'
#80
0!
#90
1!
1)
#100
0!
#110
1!
b0 q
b10010 p
b10001 p
b10000 p
b1111 p
b1110 p
b1101 p
b1100 p
b1011 p
b1010 p
b1001 p
b1000 p
b111 p
b110 p
b101 p
b100 p
b11 p
b10 p
b1 p
b0 p
b10011 r
b1000 s
b111000000000000000000000000 t
b10111 p
b10110 p
b10101 p
b10100 p
b10011 p
b11111111111111111111111111111111 q
b1 r
b100000 s
b0 q
b11000 p
b10111 p
b10110 p
b10101 p
b10100 p
b10011 p
b11111111111111111111111111111111 q
b0 q
b11001 p
b11000 p
b10111 p
b10110 p
b10101 p
b10100 p
b10011 p
b11111111111111111111111111111111 q
b0 r
b1000 s
b0 q
b10111 p
b10110 p
b10101 p
b10100 p
b10011 p
b11111111111111111111111111111111 q
b10100110 r
b0 q
b11000 p
b10111 p
b10110 p
b10101 p
b10100 p
b10011 p
b11111111111111111111111111111111 q
b10011 r
b0 q
b11000 p
b10111 p
b10110 p
b10101 p
b10100 p
b10011 p
b11111111111111111111111111111111 q
b101000 r
b1000000 s
b1001000000000000000000000000 t
b0 q
b11101 p
b11100 p
b11011 p
b11010 p
b11001 p
b11000 p
b10111 p
b10110 p
b10101 p
b10100 p
b10011 p
b11111111111111111111111111111111 q
b10 r
b100000 s
b10000000000000000000000000 t
b0 q
b11000 p
b10111 p
b10110 p
b10101 p
b10100 p
b10011 p
b11111111111111111111111111111111 q
b0 q
b101001 p
b101000 p
b100111 p
b100110 p
b100101 p
b100100 p
b100011 p
b100010 p
b100001 p
b100000 p
b11111 p
b11110 p
b11101 p
b11100 p
b11011 p
b11010 p
b11001 p
b11000 p
b10111 p
b10110 p
b10101 p
b10100 p
b10011 p
b11111111111111111111111111111111 q
b0 q
b101110 p
b101101 p
b101100 p
b101011 p
b101010 p
b101001 p
b101000 p
b100111 p
b100110 p
b100101 p
b100100 p
b100011 p
b100010 p
b100001 p
b100000 p
b11111 p
b11110 p
b11101 p
b11100 p
b11011 p
b11010 p
b11001 p
b11000 p
b10111 p
b10110 p
b10101 p
b10100 p
b10011 p
b11111111111111111111111111111111 q
b0 q
b11100 p
b11011 p
b11010 p
b11001 p
b11000 p
b10111 p
b10110 p
b10101 p
b10100 p
b10011 p
b11111111111111111111111111111111 q
b0 q
b10010 p
b10001 p
b10000 p
b1111 p
b1110 p
b1101 p
b1100 p
b1011 p
b1010 p
b1001 p
b1000 p
b111 p
b110 p
b101 p
b100 p
b11 p
b10 p
b1 p
b0 p
b10011 r
b1000 s
b111000000000000000000000000 t
b10111 p
b10110 p
b10101 p
b10100 p
b10011 p
b11111111111111111111111111111111 q
b1 r
b100000 s
b0 q
b11000 p
b10111 p
b10110 p
b10101 p
b10100 p
b10011 p
b11111111111111111111111111111111 q
b0 q
b11001 p
b11000 p
b10111 p
b10110 p
b10101 p
b10100 p
b10011 p
b11111111111111111111111111111111 q
b0 r
b1000 s
b0 q
b10111 p
b10110 p
b10101 p
b10100 p
b10011 p
b11111111111111111111111111111111 q
b10100110 r
b0 q
b11000 p
b10111 p
b10110 p
b10101 p
b10100 p
b10011 p
b11111111111111111111111111111111 q
b10011 r
b0 q
b11000 p
b10111 p
b10110 p
b10101 p
b10100 p
b10011 p
b11111111111111111111111111111111 q
b101000 r
b1000000 s
b1001000000000000000000000000 t
b0 q
b11101 p
b11100 p
b11011 p
b11010 p
b11001 p
b11000 p
b10111 p
b10110 p
b10101 p
b10100 p
b10011 p
b11111111111111111111111111111111 q
b10 r
b100000 s
b10000000000000000000000000 t
b0 q
b11000 p
b10111 p
b10110 p
b10101 p
b10100 p
b10011 p
b11111111111111111111111111111111 q
b0 q
b101001 p
b101000 p
b100111 p
b100110 p
b100101 p
b100100 p
b100011 p
b100010 p
b100001 p
b100000 p
b11111 p
b11110 p
b11101 p
b11100 p
b11011 p
b11010 p
b11001 p
b11000 p
b10111 p
b10110 p
b10101 p
b10100 p
b10011 p
b11111111111111111111111111111111 q
b0 q
b101110 p
b101101 p
b101100 p
b101011 p
b101010 p
b101001 p
b101000 p
b100111 p
b100110 p
b100101 p
b100100 p
b100011 p
b100010 p
b100001 p
b100000 p
b11111 p
b11110 p
b11101 p
b11100 p
b11011 p
b11010 p
b11001 p
b11000 p
b10111 p
b10110 p
b10101 p
b10100 p
b10011 p
b11111111111111111111111111111111 q
b0 q
b11100 p
b11011 p
b11010 p
b11001 p
b11000 p
b10111 p
b10110 p
b10101 p
b10100 p
b10011 p
b11111111111111111111111111111111 q
b100101 6!
b10011001001101001011001110 m
b10011001001101001011010001 m
0&
0'
b100101 5!
b0 q
b1 p
b0 p
b0 r
b1000 s
b111000000000000000000000000 t
b110 p
b101 p
b100 p
b11 p
b10 p
b11111111111111111111111111111111 q
b100000 s
b0 q
b111 p
b110 p
b101 p
b100 p
b11 p
b10 p
b11111111111111111111111111111111 q
b0 q
b1000 p
b111 p
b110 p
b101 p
b100 p
b11 p
b10 p
b11111111111111111111111111111111 q
b1000 s
b0 q
b110 p
b101 p
b100 p
b11 p
b10 p
b11111111111111111111111111111111 q
b0xxxxxxxx r
b0 q
b111 p
b110 p
b101 p
b100 p
b11 p
b10 p
b11111111111111111111111111111111 q
b10011 r
b0 q
b111 p
b110 p
b101 p
b100 p
b11 p
b10 p
b11111111111111111111111111111111 q
0)
#120
0!
#130
1!
1&
b11000 #
b10010110 $
#140
0!
#150
1!
1'
#160
0!
#170
1!
1)
#180
0!
#190
1!
b0 q
b10010 p
b10001 p
b10000 p
b1111 p
b1110 p
b1101 p
b1100 p
b1011 p
b1010 p
b1001 p
b1000 p
b111 p
b110 p
b101 p
b100 p
b11 p
b10 p
b1 p
b0 p
b10010110 r
b10111 p
b10110 p
b10101 p
b10100 p
b10011 p
b11111111111111111111111111111111 q
b10 r
b100000 s
b0 q
b11000 p
b10111 p
b10110 p
b10101 p
b10100 p
b10011 p
b11111111111111111111111111111111 q
b0 q
b11001 p
b11000 p
b10111 p
b10110 p
b10101 p
b10100 p
b10011 p
b11111111111111111111111111111111 q
b11000 r
b1000 s
b0 q
b10111 p
b10110 p
b10101 p
b10100 p
b10011 p
b11111111111111111111111111111111 q
b10111111 r
b0 q
b11000 p
b10111 p
b10110 p
b10101 p
b10100 p
b10011 p
b11111111111111111111111111111111 q
b10010110 r
b0 q
b11000 p
b10111 p
b10110 p
b10101 p
b10100 p
b10011 p
b11111111111111111111111111111111 q
b1101110 r
b1000000 s
b1001000000000000000000000000 t
b0 q
b11101 p
b11100 p
b11011 p
b11010 p
b11001 p
b11000 p
b10111 p
b10110 p
b10101 p
b10100 p
b10011 p
b11111111111111111111111111111111 q
b10 r
b100000 s
b10000000000000000000000000 t
b0 q
b11000 p
b10111 p
b10110 p
b10101 p
b10100 p
b10011 p
b11111111111111111111111111111111 q
b0 q
b101001 p
b101000 p
b100111 p
b100110 p
b100101 p
b100100 p
b100011 p
b100010 p
b100001 p
b100000 p
b11111 p
b11110 p
b11101 p
b11100 p
b11011 p
b11010 p
b11001 p
b11000 p
b10111 p
b10110 p
b10101 p
b10100 p
b10011 p
b11111111111111111111111111111111 q
b0 q
b101110 p
b101101 p
b101100 p
b101011 p
b101010 p
b101001 p
b101000 p
b100111 p
b100110 p
b100101 p
b100100 p
b100011 p
b100010 p
b100001 p
b100000 p
b11111 p
b11110 p
b11101 p
b11100 p
b11011 p
b11010 p
b11001 p
b11000 p
b10111 p
b10110 p
b10101 p
b10100 p
b10011 p
b11111111111111111111111111111111 q
b0 q
b11100 p
b11011 p
b11010 p
b11001 p
b11000 p
b10111 p
b10110 p
b10101 p
b10100 p
b10011 p
b11111111111111111111111111111111 q
b0 q
b10010 p
b10001 p
b10000 p
b1111 p
b1110 p
b1101 p
b1100 p
b1011 p
b1010 p
b1001 p
b1000 p
b111 p
b110 p
b101 p
b100 p
b11 p
b10 p
b1 p
b0 p
b10010110 r
b1000 s
b111000000000000000000000000 t
b10111 p
b10110 p
b10101 p
b10100 p
b10011 p
b11111111111111111111111111111111 q
b10 r
b100000 s
b0 q
b11000 p
b10111 p
b10110 p
b10101 p
b10100 p
b10011 p
b11111111111111111111111111111111 q
b0 q
b11001 p
b11000 p
b10111 p
b10110 p
b10101 p
b10100 p
b10011 p
b11111111111111111111111111111111 q
b11000 r
b1000 s
b0 q
b10111 p
b10110 p
b10101 p
b10100 p
b10011 p
b11111111111111111111111111111111 q
b10111111 r
b0 q
b11000 p
b10111 p
b10110 p
b10101 p
b10100 p
b10011 p
b11111111111111111111111111111111 q
b10010110 r
b0 q
b11000 p
b10111 p
b10110 p
b10101 p
b10100 p
b10011 p
b11111111111111111111111111111111 q
b1101110 r
b1000000 s
b1001000000000000000000000000 t
b0 q
b11101 p
b11100 p
b11011 p
b11010 p
b11001 p
b11000 p
b10111 p
b10110 p
b10101 p
b10100 p
b10011 p
b11111111111111111111111111111111 q
b10 r
b100000 s
b10000000000000000000000000 t
b0 q
b11000 p
b10111 p
b10110 p
b10101 p
b10100 p
b10011 p
b11111111111111111111111111111111 q
b0 q
b101001 p
b101000 p
b100111 p
b100110 p
b100101 p
b100100 p
b100011 p
b100010 p
b100001 p
b100000 p
b11111 p
b11110 p
b11101 p
b11100 p
b11011 p
b11010 p
b11001 p
b11000 p
b10111 p
b10110 p
b10101 p
b10100 p
b10011 p
b11111111111111111111111111111111 q
b0 q
b101110 p
b101101 p
b101100 p
b101011 p
b101010 p
b101001 p
b101000 p
b100111 p
b100110 p
b100101 p
b100100 p
b100011 p
b100010 p
b100001 p
b100000 p
b11111 p
b11110 p
b11101 p
b11100 p
b11011 p
b11010 p
b11001 p
b11000 p
b10111 p
b10110 p
b10101 p
b10100 p
b10011 p
b11111111111111111111111111111111 q
b0 q
b11100 p
b11011 p
b11010 p
b11001 p
b11000 p
b10111 p
b10110 p
b10101 p
b10100 p
b10011 p
b11111111111111111111111111111111 q
b100110 6!
b10011001001101001011010101 m
b10011001001101001011011010 m
0&
0'
b100110 5!
b0 q
b1 p
b0 p
b0 r
b1000 s
b111000000000000000000000000 t
b110 p
b101 p
b100 p
b11 p
b10 p
b11111111111111111111111111111111 q
b100000 s
b0 q
b111 p
b110 p
b101 p
b100 p
b11 p
b10 p
b11111111111111111111111111111111 q
b0 q
b1000 p
b111 p
b110 p
b101 p
b100 p
b11 p
b10 p
b11111111111111111111111111111111 q
b11000 r
b1000 s
b0 q
b110 p
b101 p
b100 p
b11 p
b10 p
b11111111111111111111111111111111 q
b0xxxxxxxx r
b0 q
b111 p
b110 p
b101 p
b100 p
b11 p
b10 p
b11111111111111111111111111111111 q
b10010110 r
b0 q
b111 p
b110 p
b101 p
b100 p
b11 p
b10 p
b11111111111111111111111111111111 q
0)
#200
0!
#210
1!
1&
b11100 #
b1000111 $
#220
0!
#230
1!
1'
#240
0!
#250
1!
1)
#260
0!
#270
1!
b0 q
b10010 p
b10001 p
b10000 p
b1111 p
b1110 p
b1101 p
b1100 p
b1011 p
b1010 p
b1001 p
b1000 p
b111 p
b110 p
b101 p
b100 p
b11 p
b10 p
b1 p
b0 p
b1000111 r
b10111 p
b10110 p
b10101 p
b10100 p
b10011 p
b11111111111111111111111111111111 q
b10 r
b100000 s
b0 q
b11000 p
b10111 p
b10110 p
b10101 p
b10100 p
b10011 p
b11111111111111111111111111111111 q
b0 q
b11001 p
b11000 p
b10111 p
b10110 p
b10101 p
b10100 p
b10011 p
b11111111111111111111111111111111 q
b11100 r
b1000 s
b0 q
b10111 p
b10110 p
b10101 p
b10100 p
b10011 p
b11111111111111111111111111111111 q
b1111100 r
b0 q
b11000 p
b10111 p
b10110 p
b10101 p
b10100 p
b10011 p
b11111111111111111111111111111111 q
b1000111 r
b0 q
b11000 p
b10111 p
b10110 p
b10101 p
b10100 p
b10011 p
b11111111111111111111111111111111 q
b10111110 r
b1000000 s
b1001000000000000000000000000 t
b0 q
b11101 p
b11100 p
b11011 p
b11010 p
b11001 p
b11000 p
b10111 p
b10110 p
b10101 p
b10100 p
b10011 p
b11111111111111111111111111111111 q
b10 r
b100000 s
b10000000000000000000000000 t
b0 q
b11000 p
b10111 p
b10110 p
b10101 p
b10100 p
b10011 p
b11111111111111111111111111111111 q
b0 q
b101001 p
b101000 p
b100111 p
b100110 p
b100101 p
b100100 p
b100011 p
b100010 p
b100001 p
b100000 p
b11111 p
b11110 p
b11101 p
b11100 p
b11011 p
b11010 p
b11001 p
b11000 p
b10111 p
b10110 p
b10101 p
b10100 p
b10011 p
b11111111111111111111111111111111 q
b0 q
b101110 p
b101101 p
b101100 p
b101011 p
b101010 p
b101001 p
b101000 p
b100111 p
b100110 p
b100101 p
b100100 p
b100011 p
b100010 p
b100001 p
b100000 p
b11111 p
b11110 p
b11101 p
b11100 p
b11011 p
b11010 p
b11001 p
b11000 p
b10111 p
b10110 p
b10101 p
b10100 p
b10011 p
b11111111111111111111111111111111 q
b0 q
b11100 p
b11011 p
b11010 p
b11001 p
b11000 p
b10111 p
b10110 p
b10101 p
b10100 p
b10011 p
b11111111111111111111111111111111 q
b0 q
b10010 p
b10001 p
b10000 p
b1111 p
b1110 p
b1101 p
b1100 p
b1011 p
b1010 p
b1001 p
b1000 p
b111 p
b110 p
b101 p
b100 p
b11 p
b10 p
b1 p
b0 p
b1000111 r
b1000 s
b111000000000000000000000000 t
b10111 p
b10110 p
b10101 p
b10100 p
b10011 p
b11111111111111111111111111111111 q
b10 r
b100000 s
b0 q
b11000 p
b10111 p
b10110 p
b10101 p
b10100 p
b10011 p
b11111111111111111111111111111111 q
b0 q
b11001 p
b11000 p
b10111 p
b10110 p
b10101 p
b10100 p
b10011 p
b11111111111111111111111111111111 q
b11100 r
b1000 s
b0 q
b10111 p
b10110 p
b10101 p
b10100 p
b10011 p
b11111111111111111111111111111111 q
b1111100 r
b0 q
b11000 p
b10111 p
b10110 p
b10101 p
b10100 p
b10011 p
b11111111111111111111111111111111 q
b1000111 r
b0 q
b11000 p
b10111 p
b10110 p
b10101 p
b10100 p
b10011 p
b11111111111111111111111111111111 q
b10111110 r
b1000000 s
b1001000000000000000000000000 t
b0 q
b11101 p
b11100 p
b11011 p
b11010 p
b11001 p
b11000 p
b10111 p
b10110 p
b10101 p
b10100 p
b10011 p
b11111111111111111111111111111111 q
b10 r
b100000 s
b10000000000000000000000000 t
b0 q
b11000 p
b10111 p
b10110 p
b10101 p
b10100 p
b10011 p
b11111111111111111111111111111111 q
b0 q
b101001 p
b101000 p
b100111 p
b100110 p
b100101 p
b100100 p
b100011 p
b100010 p
b100001 p
b100000 p
b11111 p
b11110 p
b11101 p
b11100 p
b11011 p
b11010 p
b11001 p
b11000 p
b10111 p
b10110 p
b10101 p
b10100 p
b10011 p
b11111111111111111111111111111111 q
b0 q
b101110 p
b101101 p
b101100 p
b101011 p
b101010 p
b101001 p
b101000 p
b100111 p
b100110 p
b100101 p
b100100 p
b100011 p
b100010 p
b100001 p
b100000 p
b11111 p
b11110 p
b11101 p
b11100 p
b11011 p
b11010 p
b11001 p
b11000 p
b10111 p
b10110 p
b10101 p
b10100 p
b10011 p
b11111111111111111111111111111111 q
b0 q
b11100 p
b11011 p
b11010 p
b11001 p
b11000 p
b10111 p
b10110 p
b10101 p
b10100 p
b10011 p
b11111111111111111111111111111111 q
b100111 6!
b10011001001101001011100000 m
b10011001001101001011100111 m
0&
0'
b100111 5!
b0 q
b1 p
b0 p
b0 r
b1000 s
b111000000000000000000000000 t
b110 p
b101 p
b100 p
b11 p
b10 p
b11111111111111111111111111111111 q
b100000 s
b0 q
b111 p
b110 p
b101 p
b100 p
b11 p
b10 p
b11111111111111111111111111111111 q
b0 q
b1000 p
b111 p
b110 p
b101 p
b100 p
b11 p
b10 p
b11111111111111111111111111111111 q
b11100 r
b1000 s
b0 q
b110 p
b101 p
b100 p
b11 p
b10 p
b11111111111111111111111111111111 q
b0xxxxxxxx r
b0 q
b111 p
b110 p
b101 p
b100 p
b11 p
b10 p
b11111111111111111111111111111111 q
b1000111 r
b0 q
b111 p
b110 p
b101 p
b100 p
b11 p
b10 p
b11111111111111111111111111111111 q
0)
#280
0!
#290
1!
1&
b100000 #
b101010 $
#300
0!
#310
1!
1'
#320
0!
#330
1!
1)
#340
0!
#350
1!
b0 q
b10010 p
b10001 p
b10000 p
b1111 p
b1110 p
b1101 p
b1100 p
b1011 p
b1010 p
b1001 p
b1000 p
b111 p
b110 p
b101 p
b100 p
b11 p
b10 p
b1 p
b0 p
b101010 r
b10111 p
b10110 p
b10101 p
b10100 p
b10011 p
b11111111111111111111111111111111 q
b1 r
b100000 s
b0 q
b11000 p
b10111 p
b10110 p
b10101 p
b10100 p
b10011 p
b11111111111111111111111111111111 q
b0 q
b11001 p
b11000 p
b10111 p
b10110 p
b10101 p
b10100 p
b10011 p
b11111111111111111111111111111111 q
b100000 r
b1000 s
b0 q
b10111 p
b10110 p
b10101 p
b10100 p
b10011 p
b11111111111111111111111111111111 q
b10000011 r
b0 q
b11000 p
b10111 p
b10110 p
b10101 p
b10100 p
b10011 p
b11111111111111111111111111111111 q
b101010 r
b0 q
b11000 p
b10111 p
b10110 p
b10101 p
b10100 p
b10011 p
b11111111111111111111111111111111 q
b100001110 r
b1000000 s
b1001000000000000000000000000 t
b0 q
b11101 p
b11100 p
b11011 p
b11010 p
b11001 p
b11000 p
b10111 p
b10110 p
b10101 p
b10100 p
b10011 p
b11111111111111111111111111111111 q
b10 r
b100000 s
b10000000000000000000000000 t
b0 q
b11000 p
b10111 p
b10110 p
b10101 p
b10100 p
b10011 p
b11111111111111111111111111111111 q
b0 q
b101001 p
b101000 p
b100111 p
b100110 p
b100101 p
b100100 p
b100011 p
b100010 p
b100001 p
b100000 p
b11111 p
b11110 p
b11101 p
b11100 p
b11011 p
b11010 p
b11001 p
b11000 p
b10111 p
b10110 p
b10101 p
b10100 p
b10011 p
b11111111111111111111111111111111 q
b0 q
b101110 p
b101101 p
b101100 p
b101011 p
b101010 p
b101001 p
b101000 p
b100111 p
b100110 p
b100101 p
b100100 p
b100011 p
b100010 p
b100001 p
b100000 p
b11111 p
b11110 p
b11101 p
b11100 p
b11011 p
b11010 p
b11001 p
b11000 p
b10111 p
b10110 p
b10101 p
b10100 p
b10011 p
b11111111111111111111111111111111 q
b0 q
b11100 p
b11011 p
b11010 p
b11001 p
b11000 p
b10111 p
b10110 p
b10101 p
b10100 p
b10011 p
b11111111111111111111111111111111 q
b0 q
b10010 p
b10001 p
b10000 p
b1111 p
b1110 p
b1101 p
b1100 p
b1011 p
b1010 p
b1001 p
b1000 p
b111 p
b110 p
b101 p
b100 p
b11 p
b10 p
b1 p
b0 p
b101010 r
b1000 s
b111000000000000000000000000 t
b10111 p
b10110 p
b10101 p
b10100 p
b10011 p
b11111111111111111111111111111111 q
b1 r
b100000 s
b0 q
b11000 p
b10111 p
b10110 p
b10101 p
b10100 p
b10011 p
b11111111111111111111111111111111 q
b0 q
b11001 p
b11000 p
b10111 p
b10110 p
b10101 p
b10100 p
b10011 p
b11111111111111111111111111111111 q
b100000 r
b1000 s
b0 q
b10111 p
b10110 p
b10101 p
b10100 p
b10011 p
b11111111111111111111111111111111 q
b10000011 r
b0 q
b11000 p
b10111 p
b10110 p
b10101 p
b10100 p
b10011 p
b11111111111111111111111111111111 q
b101010 r
b0 q
b11000 p
b10111 p
b10110 p
b10101 p
b10100 p
b10011 p
b11111111111111111111111111111111 q
b100001110 r
b1000000 s
b1001000000000000000000000000 t
b0 q
b11101 p
b11100 p
b11011 p
b11010 p
b11001 p
b11000 p
b10111 p
b10110 p
b10101 p
b10100 p
b10011 p
b11111111111111111111111111111111 q
b10 r
b100000 s
b10000000000000000000000000 t
b0 q
b11000 p
b10111 p
b10110 p
b10101 p
b10100 p
b10011 p
b11111111111111111111111111111111 q
b0 q
b101001 p
b101000 p
b100111 p
b100110 p
b100101 p
b100100 p
b100011 p
b100010 p
b100001 p
b100000 p
b11111 p
b11110 p
b11101 p
b11100 p
b11011 p
b11010 p
b11001 p
b11000 p
b10111 p
b10110 p
b10101 p
b10100 p
b10011 p
b11111111111111111111111111111111 q
b0 q
b101110 p
b101101 p
b101100 p
b101011 p
b101010 p
b101001 p
b101000 p
b100111 p
b100110 p
b100101 p
b100100 p
b100011 p
b100010 p
b100001 p
b100000 p
b11111 p
b11110 p
b11101 p
b11100 p
b11011 p
b11010 p
b11001 p
b11000 p
b10111 p
b10110 p
b10101 p
b10100 p
b10011 p
b11111111111111111111111111111111 q
b0 q
b11100 p
b11011 p
b11010 p
b11001 p
b11000 p
b10111 p
b10110 p
b10101 p
b10100 p
b10011 p
b11111111111111111111111111111111 q
b101000 6!
b10011001001101001011101111 m
b10011001001101001011111000 m
0&
0'
b101000 5!
b0 q
b1 p
b0 p
b0 r
b1000 s
b111000000000000000000000000 t
b110 p
b101 p
b100 p
b11 p
b10 p
b11111111111111111111111111111111 q
b100000 s
b0 q
b111 p
b110 p
b101 p
b100 p
b11 p
b10 p
b11111111111111111111111111111111 q
b0 q
b1000 p
b111 p
b110 p
b101 p
b100 p
b11 p
b10 p
b11111111111111111111111111111111 q
b100000 r
b1000 s
b0 q
b110 p
b101 p
b100 p
b11 p
b10 p
b11111111111111111111111111111111 q
b0xxxxxxxx r
b0 q
b111 p
b110 p
b101 p
b100 p
b11 p
b10 p
b11111111111111111111111111111111 q
b101010 r
b0 q
b111 p
b110 p
b101 p
b100 p
b11 p
b10 p
b11111111111111111111111111111111 q
0)
#360
0!
#370
1!
1&
b111100 #
b11000010 $
#380
0!
#390
1!
1'
#400
0!
#410
1!
1)
#420
0!
